[{
  "_id": {
    "$oid": "66bb52ec871f44f82b596a1a"
  },
  "username": "mihir114",
  "email": "mihir114@yopmail.com",
  "password": "123456789",
  "__v": 0
},
{
  "_id": {
    "$oid": "66bb55da871f44f82b596a2f"
  },
  "username": "mihir115",
  "email": "mihir115@yopmail.com",
  "password": "123456789",
  "__v": 0
},
{
  "_id": {
    "$oid": "66bb5707871f44f82b596a35"
  },
  "username": "mihir114@yopmail.com",
  "email": "partiknew@yopmail.com",
  "password": "123456789",
  "__v": 0
},
{
  "_id": {
    "$oid": "66bb5849871f44f82b596a4f"
  },
  "username": "mihir1",
  "email": "pratik07@yopmail.com",
  "password": "123456789",
  "__v": 0
}]